<?xml version="1.0" encoding="utf-8"?>
<!-- Generator: Adobe Illustrator 17.1.0, SVG Export Plug-In . SVG Version: 6.00 Build 0)  -->
<!DOCTYPE svg PUBLIC "-//W3C//DTD SVG 1.1//EN" "http://www.w3.org/Graphics/SVG/1.1/DTD/svg11.dtd">
<svg version="1.1" id="Layer_1" xmlns="http://www.w3.org/2000/svg" xmlns:xlink="http://www.w3.org/1999/xlink" x="0px" y="0px"
	 viewBox="0 0 215.8 62.7" enable-background="new 0 0 215.8 62.7" xml:space="preserve">
<path fill="#2C2929" d="M35.3,6.2c-0.8-1.3-1.8-2.3-2.9-3.1c-1.1-0.8-2.4-1.4-3.8-1.9c-1.4-0.5-2.9-0.8-4.6-1
	C22.4,0.1,20.6,0,18.7,0c0,0-14.3,0-15.8,0S0,0.9,0,2.7v25.5c2,4.2,5.9,8.8,10.3,10.9V34c0-2.7,2-3.3,2.8-3.3s4.7,0,4.7,0
	c6.4,0,11.3-1.3,14.7-4c3.4-2.7,5.1-6.7,5.1-12c0-1.6-0.2-3.1-0.5-4.5C36.7,8.8,36.1,7.5,35.3,6.2z M26.1,19.3
	c-0.6,1-1.4,1.7-2.3,2.2c-1,0.5-2.1,0.8-3.4,0.9c-1.3,0.1-2.6,0.2-3.9,0.2c0,0-3.3,0-4.4,0s-1.8-0.9-1.8-2.2V9.9
	c0-1.2,0.8-1.7,1.7-1.7c0.9,0,4.5,0,4.5,0c1.5,0,2.8,0,4.1,0.1C21.9,8.5,23,8.8,24,9.2c0.9,0.5,1.7,1.1,2.2,2.1
	c0.5,0.9,0.8,2.2,0.8,3.9C27,16.9,26.7,18.3,26.1,19.3z M10.3,40.7C5.4,38.8,2.2,36.5,0,34.2c0,7,0,12.3,0,12.3s-0.2,2,1.8,2h6.9
	c1.9,0,1.7-2,1.7-2S10.3,43.7,10.3,40.7z M107.7,13.4h-6.2c-1.3,0-2.1,0.5-2.6,1.9c-0.5,1.4-7,19.5-7,19.5s-6.3-17.8-6.7-19.2
	c-0.5-1.4-1.3-2.3-2.8-2.3h-5.7c-2,0-2,1.6-1.8,2.2c0.2,0.5,8,21.7,10.9,29.8c0.7,1.9,1,2.5,1,3.2c0,0.7-0.7,2.2-1.2,3
	c-0.2,0.4-0.5,0.8-0.8,1.1c5.8-1.7,12.5-8,15.9-14.8c3.4-9.5,7.9-22,8.1-22.6C109.3,14.2,109.3,13.4,107.7,13.4z M80.5,54.5
	c-0.5,0-1.1,0-1.6-0.1c-0.7-0.1-1.9,0-1.9,1.1v4.8c0,1.8,0.9,1.9,1.3,2c1.3,0.3,2.7,0.4,4.4,0.4c1.9,0,3.6-0.4,5.1-1.1
	c1.4-0.7,2.7-1.7,3.8-2.9c1.1-1.3,2.1-2.8,2.9-4.5c0.9-1.7,1.7-3.7,2.5-5.7c0,0,0.3-0.9,0.9-2.5C96.3,47.7,88.3,55.3,80.5,54.5z
	 M71.2,19c-0.4-0.8-0.8-1.6-1.4-2.2c-0.5-0.6-1.2-1.2-1.9-1.6c-0.8-0.5-1.6-0.9-2.4-1.3c-0.8-0.3-1.7-0.6-2.7-0.8
	c-0.9-0.2-2-0.4-3.1-0.4c-1.1-0.1-2.4-0.1-3.8-0.1c-9.3,0-14.7,2.9-16,8.8c-0.4,1.8,1.4,1.9,1.4,1.9s4.2,0,5.7,0
	c1.5,0,1.4-0.5,2.2-1.8c0.3-0.7,0.7-1.4,1.4-1.9c1.1-0.8,2.8-1.3,5-1.3c2.1,0,3.7,0.4,4.6,1.2c1,0.8,1.5,2.1,1.7,3.7
	c0,1.9-0.6,3.2-3,3.2C53.3,26.4,47.1,27,43.7,29c-3.5,2-5.4,5.8-5.4,10c0,1.7,0.3,3.2,0.9,4.5c0.6,1.3,1.5,2.3,2.5,3.2
	c1.1,0.9,2.4,1.5,3.9,1.9c1.5,0.4,3.1,0.6,4.9,0.6c2.5,0,4.7-0.3,6.6-0.9c1.9-0.6,4.9-2.7,5.2-3v1.1c0,1.1,0.3,2,1.6,2h6.7
	c1.4,0,1.7-1,1.7-2.2s0-20.5,0-20.5c0-1.4-0.1-2.7-0.3-3.8C71.9,20.9,71.6,19.9,71.2,19z M62.1,39.2c0,0-1.7,3.6-7.9,3.6
	c-1.7,0-3.1-0.4-4.1-1.1c-1.1-0.8-1.6-2-1.6-3.6c0-2.1,0.9-3.6,2.6-4.4c1.7-0.9,5.2-1.4,7.8-1.3c2.6,0.1,3.3,1.7,3.3,2.8
	C62.1,35.5,62.1,39.2,62.1,39.2z"/>
<path fill="#4CB6AC" d="M214.6,26c1.5,2.2,1.7,5.6,0.1,8.3c-1.4,2.4-10.1,11.5-12.9,14.4c-2.4,2.5-5.7,5.1-9,5.1h-68
	c-9.2,0-9.7-3.1-9.7-10.1V15.2c0-7.2,2.1-9.3,8.4-9.3h69.4c3.3,0,6.1,1.7,9.5,5C205,13.8,213.4,24.3,214.6,26z"/>
<g>
	<g>
		<path fill="#FFFFFF" d="M130.3,17c0-0.2,0,0,0-0.2c0-0.9-0.1-1.8-1.6-1.8h-5.7c-1.3,0-1.4,0.7-1.4,1.9v7.5
			C124.4,20.4,127.5,18.6,130.3,17z"/>
		<path fill="#FFFFFF" d="M168.5,44.2v-0.4h0V25.6c0-7.6-3.4-11.4-10.1-11.4c-1.9,0-3.7,0.5-5.3,1.4c-1.6,1-3.1,2.3-4.6,4
			c-0.7-1.9-1.8-3.2-3.3-4.1c-1.5-0.9-3.3-1.3-5.7-1.3c-2.7,0-5.8,0.9-8,2.8c-0.5,0.5-9.9,7.9-9.9,15.5c0,4.2,0,8.6,0,8.6s0,2.9,0,3
			c0,0.4-0.2,1.8,1.4,1.8h5.9c1.8,0,1.7-1.2,1.7-1.7c0-0.1,0-3.2,0-3.2V25.4c1-1.3,3-4.6,6.4-4.6c1.3,0,2.2,0.4,2.7,1.3
			c0.6,0.9,0.8,2.3,0.8,4.3v14.7h0c0,0,0,2.9,0,3c0,0.4-0.2,1.8,1.4,1.8h5.8c1.8,0,1.7-1.2,1.7-1.7v-0.4h0V25.4
			c1.1-1.3,3.2-4.6,6.4-4.6c1.3,0,2.2,0.4,2.8,1.3c0.6,0.9,0.9,2.3,0.9,4.3v14.7h0c0,0,0,2.9,0,3c0,0.4-0.2,1.8,1.4,1.8h5.9
			C168.7,45.9,168.5,44.7,168.5,44.2z"/>
	</g>
	<g>
		<path fill="#FFFFFF" d="M201.1,36.8c-2.1,5.6-7.1,8.8-13.4,8.8c-9,0-15-6.1-15-15.4c0-9.1,6.2-15.7,14.7-15.7
			c8.4,0,14.1,5.9,14.5,15.3c0,1.2-0.3,2.3-1.8,2.3c-1,0-19.2,0-19.2,0c0.1,5.1,2.6,7.8,6.9,7.8c2.6,0,4.2-1.1,5.6-3.4
			c0.6-1,1.8-0.9,1.8-0.9s4.1,0,4.9,0C200.9,35.6,201.2,36.4,201.1,36.8z M187.4,20.4c-3.6,0-6.1,2.5-6.5,6.6h12.9
			C193.4,23.4,191.4,20.4,187.4,20.4z"/>
	</g>
</g>
</svg>
